2.011000000000000000e+09
2.039000000000000000e+09
2.067000000000000000e+09
2.095000000000000000e+09
2.011500000000000000e+09
2.039500000000000000e+09
2.067500000000000000e+09
2.095500000000000000e+09
2.012000000000000000e+09
2.040000000000000000e+09
2.068000000000000000e+09
2.096000000000000000e+09
2.012500000000000000e+09
2.040500000000000000e+09
2.068500000000000000e+09
2.096500000000000000e+09
2.013000000000000000e+09
2.041000000000000000e+09
2.069000000000000000e+09
2.097000000000000000e+09
2.013500000000000000e+09
2.041500000000000000e+09
2.069500000000000000e+09
2.097500000000000000e+09
2.014000000000000000e+09
2.042000000000000000e+09
2.070000000000000000e+09
2.098000000000000000e+09
2.014500000000000000e+09
2.042500000000000000e+09
2.070500000000000000e+09
2.098500000000000000e+09
2.015000000000000000e+09
2.043000000000000000e+09
2.071000000000000000e+09
2.099000000000000000e+09
2.015500000000000000e+09
2.043500000000000000e+09
2.071500000000000000e+09
2.099500000000000000e+09
2.016000000000000000e+09
2.044000000000000000e+09
2.072000000000000000e+09
2.100000000000000000e+09
2.016500000000000000e+09
2.044500000000000000e+09
2.072500000000000000e+09
2.100500000000000000e+09
2.017000000000000000e+09
2.045000000000000000e+09
2.073000000000000000e+09
2.101000000000000000e+09
2.017500000000000000e+09
2.045500000000000000e+09
2.073500000000000000e+09
2.101500000000000000e+09
2.018000000000000000e+09
2.046000000000000000e+09
2.074000000000000000e+09
2.102000000000000000e+09
2.018500000000000000e+09
2.046500000000000000e+09
2.074500000000000000e+09
2.102500000000000000e+09
2.019000000000000000e+09
2.047000000000000000e+09
2.075000000000000000e+09
2.103000000000000000e+09
2.019500000000000000e+09
2.047500000000000000e+09
2.075500000000000000e+09
2.103500000000000000e+09
2.020000000000000000e+09
2.048000000000000000e+09
2.076000000000000000e+09
2.104000000000000000e+09
2.020500000000000000e+09
2.048500000000000000e+09
2.076500000000000000e+09
2.104500000000000000e+09
2.021000000000000000e+09
2.049000000000000000e+09
2.077000000000000000e+09
2.105000000000000000e+09
2.021500000000000000e+09
2.049500000000000000e+09
2.077500000000000000e+09
2.105500000000000000e+09
2.022000000000000000e+09
2.050000000000000000e+09
2.078000000000000000e+09
2.106000000000000000e+09
2.022500000000000000e+09
2.050500000000000000e+09
2.078500000000000000e+09
2.106500000000000000e+09
2.023000000000000000e+09
2.051000000000000000e+09
2.079000000000000000e+09
2.107000000000000000e+09
2.023500000000000000e+09
2.051500000000000000e+09
2.079500000000000000e+09
2.107500000000000000e+09
2.024000000000000000e+09
2.052000000000000000e+09
2.080000000000000000e+09
2.108000000000000000e+09
2.024500000000000000e+09
2.052500000000000000e+09
2.080500000000000000e+09
2.108500000000000000e+09
2.025000000000000000e+09
2.053000000000000000e+09
2.081000000000000000e+09
2.109000000000000000e+09
2.025500000000000000e+09
2.053500000000000000e+09
2.081500000000000000e+09
2.109500000000000000e+09
2.026000000000000000e+09
2.054000000000000000e+09
2.082000000000000000e+09
2.110000000000000000e+09
2.026500000000000000e+09
2.054500000000000000e+09
2.082500000000000000e+09
2.110500000000000000e+09
2.027000000000000000e+09
2.055000000000000000e+09
2.083000000000000000e+09
2.111000000000000000e+09
2.027500000000000000e+09
2.055500000000000000e+09
2.083500000000000000e+09
2.111500000000000000e+09
2.028000000000000000e+09
2.056000000000000000e+09
2.084000000000000000e+09
2.112000000000000000e+09
2.028500000000000000e+09
2.056500000000000000e+09
2.084500000000000000e+09
2.112500000000000000e+09
2.029000000000000000e+09
2.057000000000000000e+09
2.085000000000000000e+09
2.113000000000000000e+09
2.029500000000000000e+09
2.057500000000000000e+09
2.085500000000000000e+09
2.113500000000000000e+09
2.030000000000000000e+09
2.058000000000000000e+09
2.086000000000000000e+09
2.114000000000000000e+09
2.030500000000000000e+09
2.058500000000000000e+09
2.086500000000000000e+09
2.114500000000000000e+09
2.031000000000000000e+09
2.059000000000000000e+09
2.087000000000000000e+09
2.115000000000000000e+09
2.031500000000000000e+09
2.059500000000000000e+09
2.087500000000000000e+09
2.115500000000000000e+09
2.032000000000000000e+09
2.060000000000000000e+09
2.088000000000000000e+09
2.116000000000000000e+09
2.032500000000000000e+09
2.060500000000000000e+09
2.088500000000000000e+09
2.116500000000000000e+09
2.033000000000000000e+09
2.061000000000000000e+09
2.089000000000000000e+09
2.117000000000000000e+09
2.033500000000000000e+09
2.061500000000000000e+09
2.089500000000000000e+09
2.117500000000000000e+09
2.034000000000000000e+09
2.062000000000000000e+09
2.090000000000000000e+09
2.118000000000000000e+09
2.034500000000000000e+09
2.062500000000000000e+09
2.090500000000000000e+09
2.118500000000000000e+09
2.035000000000000000e+09
2.063000000000000000e+09
2.091000000000000000e+09
