2.258000000000000000e+09
2.286000000000000000e+09
2.314000000000000000e+09
2.342000000000000000e+09
2.258500000000000000e+09
2.286500000000000000e+09
2.314500000000000000e+09
2.342500000000000000e+09
2.259000000000000000e+09
2.287000000000000000e+09
2.315000000000000000e+09
2.343000000000000000e+09
2.259500000000000000e+09
2.287500000000000000e+09
2.315500000000000000e+09
2.343500000000000000e+09
2.260000000000000000e+09
2.288000000000000000e+09
2.316000000000000000e+09
2.344000000000000000e+09
2.260500000000000000e+09
2.288500000000000000e+09
2.316500000000000000e+09
2.344500000000000000e+09
2.261000000000000000e+09
2.289000000000000000e+09
2.317000000000000000e+09
2.345000000000000000e+09
2.261500000000000000e+09
2.289500000000000000e+09
2.317500000000000000e+09
2.345500000000000000e+09
2.262000000000000000e+09
2.290000000000000000e+09
2.318000000000000000e+09
2.346000000000000000e+09
2.262500000000000000e+09
2.290500000000000000e+09
2.318500000000000000e+09
2.346500000000000000e+09
2.263000000000000000e+09
2.291000000000000000e+09
2.319000000000000000e+09
2.347000000000000000e+09
2.263500000000000000e+09
2.291500000000000000e+09
2.319500000000000000e+09
2.347500000000000000e+09
2.264000000000000000e+09
2.292000000000000000e+09
2.320000000000000000e+09
2.348000000000000000e+09
2.264500000000000000e+09
2.292500000000000000e+09
2.320500000000000000e+09
2.348500000000000000e+09
2.265000000000000000e+09
2.293000000000000000e+09
2.321000000000000000e+09
2.349000000000000000e+09
2.265500000000000000e+09
2.293500000000000000e+09
2.321500000000000000e+09
2.349500000000000000e+09
2.266000000000000000e+09
2.294000000000000000e+09
2.322000000000000000e+09
2.350000000000000000e+09
2.266500000000000000e+09
2.294500000000000000e+09
2.322500000000000000e+09
2.350500000000000000e+09
2.267000000000000000e+09
2.295000000000000000e+09
2.323000000000000000e+09
2.351000000000000000e+09
2.267500000000000000e+09
2.295500000000000000e+09
2.323500000000000000e+09
2.351500000000000000e+09
2.268000000000000000e+09
2.296000000000000000e+09
2.324000000000000000e+09
2.352000000000000000e+09
2.268500000000000000e+09
2.296500000000000000e+09
2.324500000000000000e+09
2.352500000000000000e+09
2.269000000000000000e+09
2.297000000000000000e+09
2.325000000000000000e+09
2.353000000000000000e+09
2.269500000000000000e+09
2.297500000000000000e+09
2.325500000000000000e+09
2.353500000000000000e+09
2.270000000000000000e+09
2.298000000000000000e+09
2.326000000000000000e+09
2.354000000000000000e+09
2.270500000000000000e+09
2.298500000000000000e+09
2.326500000000000000e+09
2.354500000000000000e+09
2.271000000000000000e+09
2.299000000000000000e+09
2.327000000000000000e+09
2.355000000000000000e+09
2.271500000000000000e+09
2.299500000000000000e+09
2.327500000000000000e+09
2.355500000000000000e+09
2.272000000000000000e+09
2.300000000000000000e+09
2.328000000000000000e+09
2.356000000000000000e+09
2.272500000000000000e+09
2.300500000000000000e+09
2.328500000000000000e+09
2.356500000000000000e+09
2.273000000000000000e+09
2.301000000000000000e+09
2.329000000000000000e+09
2.357000000000000000e+09
2.273500000000000000e+09
2.301500000000000000e+09
2.329500000000000000e+09
2.357500000000000000e+09
2.274000000000000000e+09
2.302000000000000000e+09
2.330000000000000000e+09
2.358000000000000000e+09
2.274500000000000000e+09
2.302500000000000000e+09
2.330500000000000000e+09
2.358500000000000000e+09
2.275000000000000000e+09
2.303000000000000000e+09
2.331000000000000000e+09
2.359000000000000000e+09
2.275500000000000000e+09
2.303500000000000000e+09
2.331500000000000000e+09
2.359500000000000000e+09
2.276000000000000000e+09
2.304000000000000000e+09
2.332000000000000000e+09
2.360000000000000000e+09
2.276500000000000000e+09
2.304500000000000000e+09
2.332500000000000000e+09
2.360500000000000000e+09
2.277000000000000000e+09
2.305000000000000000e+09
2.333000000000000000e+09
2.361000000000000000e+09
2.277500000000000000e+09
2.305500000000000000e+09
2.333500000000000000e+09
2.361500000000000000e+09
2.278000000000000000e+09
2.306000000000000000e+09
2.334000000000000000e+09
2.362000000000000000e+09
2.278500000000000000e+09
2.306500000000000000e+09
2.334500000000000000e+09
2.362500000000000000e+09
2.279000000000000000e+09
2.307000000000000000e+09
2.335000000000000000e+09
2.363000000000000000e+09
2.279500000000000000e+09
2.307500000000000000e+09
2.335500000000000000e+09
2.363500000000000000e+09
2.280000000000000000e+09
2.308000000000000000e+09
2.336000000000000000e+09
2.364000000000000000e+09
2.280500000000000000e+09
2.308500000000000000e+09
2.336500000000000000e+09
2.364500000000000000e+09
2.281000000000000000e+09
2.309000000000000000e+09
2.337000000000000000e+09
2.365000000000000000e+09
2.281500000000000000e+09
2.309500000000000000e+09
2.337500000000000000e+09
2.365500000000000000e+09
2.282000000000000000e+09
2.310000000000000000e+09
2.338000000000000000e+09
